-------------------------------------------------------------------------------
Test set: unit.BookFlightTest
-------------------------------------------------------------------------------
Tests run: 1, Failures: 0, Errors: 0, Skipped: 0, Time elapsed: 9.463 s - in unit.BookFlightTest
